action	linkTypeId
"activator"	720
"adduct"	NA
"agonist"	720
"allosteric modulator"	700
"antagonist"	710
"antibody"	700
"binder"	700
"blocker"	710
"chaperone"	NA
"chelator"	700
"cleavage"	NA
"cofactor"	720
"component of"	NA
"conversion inhibitor"	710
"cross-linking/alkylation"	NA
"inactivator"	710
"incorporation into and destabilization"	710
"inducer"	720
"inhibitor"	710
"inhibitor, competitive"	710
"inhibitory allosteric modulator"	710
"intercalation"	NA
"inverse agonist"	710
"ligand"	700
"metabolizer"	710
"modulator"	700
"multitarget"	NA
"negative modulator"	710
"neutralizer"	710
"Other"	700
"other"	700
"other/unknown"	700
"partial agonist"	720
"partial antagonist"	710
"positive allosteric modulator"	720
"potentiator"	720
"product of"	NA
"reducer"	710
"stimulator"	720
"substrate"	730
"suppressor"	710
"unknown"	700
