# Style 0=solid, 1=dashed
style	color	relation	linktype
0	000000	Arrow	300
0	000000	Line	230
0	000000	TBar	310
0	0000CC	Arrow	400
0	0000FF	Arrow	400
0	0000FF	Line	230
0	0000FF	TBar	310
0	008000	Arrow	600
0	0033CC	Arrow	400
0	00CC00	Arrow	600
0	00FF00	Arrow	200
0	00FFFF	Arrow	410
0	0F0F0F	Arrow	300
0	33CC00	Arrow	600
0	3333FF	Arrow	200
0	6699FF	TBar	210
0	770000	Arrow	440
0	775200	Arrow	443
0	9900CC	Arrow	433
0	990099	Arrow	433
0	990099	Line	230
0	999900	Arrow	460
0	999999	Arrow	220
0	CC0033	TBar	210
0	CC00CC	Arrow	430
0	CCCC00	Arrow	463
0	CCCCCC	Arrow	220
0	FF0000	Arrow	300
0	FF0000	TBar	310
0	FF0033	TBar	310
0	FF0080	Arrow	200
0	FF00FF	Arrow	220
0	FF3333	TBar	310
0	FF9933	Arrow	453
0	FFCC33	Arrow	450
0	NA	Receptor	200
NA	NA	mim-binding	230
NA	NA	mim-catalysis	300
NA	NA	mim-cleavage	240
NA	NA	mim-conversion	525
NA	NA	mim-inhibition	310
NA	NA	mim-modification	220
NA	NA	mim-necessary-stimulation	300
NA	NA	mim-stimulation	300
NA	NA	mim-transcription-translation	300
