linkTypeId	name	description
100	"protein coding gene"	"Source gene encodes the target protein."
200	"protein activation"	"Source entity enhances the activity of the target protein. This link points to the gene that encodes the activated protein."
210	"protein inhibition"	"Source entity inhibits the activity of the target protein. This link points to the gene that encodes the repressed protein."
220	"protein state change"	"Source entity alters the biological function of the target protein. The alteration may be caused, for example, by its translocation, structural modification, changes in complex structure or by chemical modifications. This link points to the gene that encodes the target protein."
230	"protein binding"	"Source and target proteins form a complex. This link is used between the encoding genes."
235	"DNA binding"	"Source protein binds to the target site of the DNA"
240	"protein dissociation"	"The complex of the source and the target protein is disintegrated. These links are formed between the encoding genes."
300	"gene expression"	"Source entity enhances the activity of the target gene."
310	"gene repression"	"Source entity acts as an inhibitor of the target gene."
400	"phosphorylation"	"Source entity adds a phosphate (PO4) group to the target entity. These links are formed between the genes encoding the proteins participating the phosphorylation reaction."
410	"dephosphorylation"	"Source entity cleaves a phosphate (PO4) group from the target entity. These links are formed between the genes encoding the proteins participating the dephosphorylation reaction."
420	"glycosylation"	"Glycosylation is the enzymatic process that links saccharides to produce glycans, attached to proteins, lipids, or other organic molecules. Source entity adds a glycan to the target entity. These links are formed between genes encoding the proteins participating the glycosylation reaction."
430	"ubiquitination"	"Source entity adds one or more ubiquitin monomers to the target protein. These links are formed between genes encoding the proteins participating the ubiquitination reaction."
433	"deubiquitination"	"Source entity extracts one or more ubiquitin monomers from the target protein. These links are formed between genes encoding the proteins participating in the ubiquitination reaction."
440	"methylation"	"Source entity adds a methyl group to the target entity. These links are formed between the genes encoding the proteins participating in the methylation reaction."
443	"demethylation"	"Source entity extracts a methyl group from the target entity. These links are formed between the genes encoding the proteins participating in the methylation reaction."
450	"acetylation"	"Source entity adds an acetyl functional group into a target entity."
453	"deacetylation"	"Source entity extracts an acetyl functional group into a target entity."
460	"sumoylation"	"Source entity attaches a small ubiquitin-like protein to target entity. These links are formed between proteins participating in the sumoylation reaction."
463	"desumoylation"	"Source entity deattaches a small ubiquitin-like protein to target entity. These links are formed between proteins participating in the sumoylation reaction."
500	"pathway precedence"	"Source entity is involved in the production of the substrates of the target entity. These links are mediated by small molecules in metabolic pathways."
520	"enzymatic reaction"	"Binds enzymes to their reagents and products."
525	"chemical reaction"	"Chemical transformation of the source reactant to the target product."
550	"pathway contains"	"Target entity belongs to the source pathway."
590	"pathway describes"	"Source pathway describes some aspects of the target concept."
600	"protein-protein interaction"	"Physical interaction between two proteins. These links are formed between the genes encoding the interacting proteins."
700	"drug target"	"Source drug has an unspecified function on the target gene or its products."
710	"drug inhibits"	"Source drug is known to repress the normal function of the target gene or its products."
720	"drug promotes"	"Source drug is known to enhance the normal function of the target gene or its products."
730	"drug metabolism"	"Source drug is decomposed by the proteins encoded by the target gene."
740	"drug indication"	"Source condition is an indication of the target drug"
750	"drug interaction"	"Co-administration of these drugs may cause additional side effects."
800	"positive regulation"	"Source entity enhances the target disease or process that is represented as a GO term."
810	"negative regulation"	"Source entity inhibits the target disease or process that is represented as a GO term."
820	"localization"	"Source entity resides in the target cellular component."
850	"biomarker"	"Source entity has been associated as a biomarker of the target entity."
860	"coexist"	"These entities are observed together"
870	"context"	"Source disease, cell line, or tissue has been associated to the target entity. Target entities may be DNA binding sites or other transient phenomenon."
880	"paralog"	"Target gene has emerged from the duplication of the source gene."
885	"ortholog"	"Target gene is homologous to the source gene but they belong to different organisms."
