"ID"	"Members"
"NOT_set1_AND_NOT_set3_AND_NOT_set2"	""
"set1_AND_NOT_set3_AND_NOT_set2"	"ENSG00000115085,ENSG00000165025"
"NOT_set1_AND_set3_AND_NOT_set2"	"ENSG00000197461"
"set1_AND_set3_AND_NOT_set2"	"ENSG00000011600"
"NOT_set1_AND_NOT_set3_AND_set2"	"ENSG00000160691"
"set1_AND_NOT_set3_AND_set2"	""
"NOT_set1_AND_set3_AND_set2"	"ENSG00000101336"
"set1_AND_set3_AND_set2"	""
